{
  "defaultSeverity": "error",
  "extends": ["tslint:recommended"],
  "jsRules": {
    "no-console": false
  },
  "rules": {
    "trailing-comma": [false],
    "jsdoc-format": false,
    "no-console": false,
    "no-var-requires": false,
    "only-arrow-functions": false
  },
  "rulesDirectory": []
}
